…
```
## 
##   0   1 
##  77 640
```

```r
df1_raw %>% count(country)
```

```
## # A tibble: 32 x 2
##    country     n
##      <dbl> <int>
##  1       8    24
##  2       9     1
##  3      16     1
##  4      30    37
##  5      44     4
##  6      50     1
##  7      57     1
##  8      58     6
##  9      60     1
## 10      61     1
## # ... with 22 more rows
```
…
